# Blender v2.65 (sub 0) OBJ File: 'DuraGlide3k.blend'
# www.blender.org
mtllib DuraGlide3k.mtl
o FRTWindow_topWindow
v 10.490726 13.542728 0.583684
v 10.490726 13.542728 0.383684
v 19.571184 13.542728 0.383684
v 19.571184 13.542728 0.583684
v 10.490726 25.029423 0.583684
v 10.490726 25.029423 0.383684
v 19.571184 25.029423 0.383684
v 19.571184 25.029423 0.583684
vn -1.000000 -0.000000 0.000000
vn 0.000000 0.000000 -1.000000
vn 1.000000 -0.000000 0.000000
vn 0.000000 0.000000 1.000000
vn -0.000000 -1.000000 0.000000
vn -0.000000 1.000000 0.000000
g FRTWindow_topWindow_Glass
usemtl Glass
s off
f 2//1 1//1 5//1
f 2//1 5//1 6//1
f 6//2 7//2 3//2
f 6//2 3//2 2//2
f 7//3 8//3 4//3
f 7//3 4//3 3//3
f 1//4 4//4 8//4
f 1//4 8//4 5//4
f 1//5 2//5 3//5
f 1//5 3//5 4//5
f 8//6 7//6 6//6
f 8//6 6//6 5//6
o FRBWindow_bottomWindow
v 10.470083 1.554014 0.583684
v 10.470083 1.554014 0.383684
v 19.553125 1.554014 0.383684
v 19.553125 1.554014 0.583684
v 10.470083 13.123842 0.583684
v 10.470083 13.123842 0.383684
v 19.553125 13.123842 0.383684
v 19.553125 13.123842 0.583684
g FRBWindow_bottomWindow_Glass
usemtl Glass
s off
f 10//1 9//1 13//1
f 10//1 13//1 14//1
f 14//2 15//2 11//2
f 14//2 11//2 10//2
f 15//3 16//3 12//3
f 15//3 12//3 11//3
f 9//4 12//4 16//4
f 9//4 16//4 13//4
f 9//5 10//5 11//5
f 9//5 11//5 12//5
f 16//6 15//6 14//6
f 16//6 14//6 13//6
o BRBWindow_bottomWindow
v 0.734653 1.554014 -0.447494
v 0.734653 1.554014 -0.647494
v 9.817696 1.554014 -0.647494
v 9.817696 1.554014 -0.447494
v 0.734653 13.123842 -0.447494
v 0.734653 13.123842 -0.647494
v 9.817696 13.123842 -0.647494
v 9.817696 13.123842 -0.447494
g BRBWindow_bottomWindow_Glass
usemtl Glass
s off
f 18//1 17//1 21//1
f 18//1 21//1 22//1
f 22//2 23//2 19//2
f 22//2 19//2 18//2
f 23//3 24//3 20//3
f 23//3 20//3 19//3
f 17//4 20//4 24//4
f 17//4 24//4 21//4
f 17//5 18//5 19//5
f 17//5 19//5 20//5
f 24//6 23//6 22//6
f 24//6 22//6 21//6
o BRTWindow_topWindow
v 0.755296 13.542728 -0.447494
v 0.755296 13.542728 -0.647494
v 9.835754 13.542728 -0.647494
v 9.835754 13.542728 -0.447494
v 0.755296 25.029423 -0.447494
v 0.755296 25.029423 -0.647494
v 9.835754 25.029423 -0.647494
v 9.835754 25.029423 -0.447494
g BRTWindow_topWindow_Glass
usemtl Glass
s off
f 26//1 25//1 29//1
f 26//1 29//1 30//1
f 30//2 31//2 27//2
f 30//2 27//2 26//2
f 31//3 32//3 28//3
f 31//3 28//3 27//3
f 25//4 28//4 32//4
f 25//4 32//4 29//4
f 25//5 26//5 27//5
f 25//5 27//5 28//5
f 32//6 31//6 30//6
f 32//6 30//6 29//6
o BLTWindow_topWindow
v -9.747292 13.542728 -0.447494
v -9.747292 13.542728 -0.647494
v -0.666833 13.542728 -0.647494
v -0.666833 13.542728 -0.447494
v -9.747292 25.029423 -0.447494
v -9.747292 25.029423 -0.647494
v -0.666833 25.029423 -0.647494
v -0.666833 25.029423 -0.447494
g BLTWindow_topWindow_Glass
usemtl Glass
s off
f 34//1 33//1 37//1
f 34//1 37//1 38//1
f 38//2 39//2 35//2
f 38//2 35//2 34//2
f 39//3 40//3 36//3
f 39//3 36//3 35//3
f 33//4 36//4 40//4
f 33//4 40//4 37//4
f 33//5 34//5 35//5
f 33//5 35//5 36//5
f 40//6 39//6 38//6
f 40//6 38//6 37//6
o BLBWindow_bottomWindow
v -9.767935 1.554014 -0.447494
v -9.767935 1.554014 -0.647494
v -0.684891 1.554014 -0.647494
v -0.684891 1.554014 -0.447494
v -9.767935 13.123842 -0.447494
v -9.767935 13.123842 -0.647494
v -0.684891 13.123842 -0.647494
v -0.684891 13.123842 -0.447494
g BLBWindow_bottomWindow_Glass
usemtl Glass
s off
f 42//1 41//1 45//1
f 42//1 45//1 46//1
f 46//2 47//2 43//2
f 46//2 43//2 42//2
f 47//3 48//3 44//3
f 47//3 44//3 43//3
f 41//4 44//4 48//4
f 41//4 48//4 45//4
f 41//5 42//5 43//5
f 41//5 43//5 44//5
f 48//6 47//6 46//6
f 48//6 46//6 45//6
o DoorBR_door
v 0.004930 26.297466 0.000239
v 0.004930 26.297466 -0.999761
v 0.004930 0.347465 -0.999761
v 0.004930 0.347465 0.000239
v 10.504930 26.297464 0.000239
v 10.504930 26.297464 -0.999761
v 0.784228 25.007938 -0.999761
v 0.784228 13.597517 -0.999761
v 10.504930 0.347464 -0.999761
v 10.504930 0.347464 0.000239
v 0.784228 13.597517 0.000239
v 0.784228 25.007938 0.000239
v 9.776417 25.007938 -0.999761
v 9.776417 25.007938 0.000239
v 0.784228 1.592445 -0.999761
v 9.776417 1.592444 -0.999761
v 9.776417 13.597517 -0.999761
v 0.784228 13.076900 -0.999761
v 9.776417 13.076900 -0.999761
v 0.784228 1.592445 0.000239
v 9.776417 1.592444 0.000239
v 9.776417 13.597517 0.000239
v 0.784228 13.076900 0.000239
v 9.776417 13.076900 0.000239
g DoorBR_door_GreySteel
usemtl GreySteel
s off
f 49//1 50//1 51//1
f 49//1 51//1 52//1
f 50//2 54//2 61//2
f 50//2 61//2 55//2
f 50//2 55//2 56//2
f 50//2 56//2 51//2
f 54//2 57//2 65//2
f 54//2 65//2 61//2
f 66//2 56//2 65//2
f 66//2 65//2 67//2
f 65//2 57//2 64//2
f 65//2 64//2 67//2
f 66//2 63//2 51//2
f 66//2 51//2 56//2
f 57//2 51//2 63//2
f 57//2 63//2 64//2
f 58//3 57//3 54//3
f 58//3 54//3 53//3
f 49//4 60//4 62//4
f 49//4 62//4 53//4
f 49//4 52//4 59//4
f 49//4 59//4 60//4
f 70//4 58//4 53//4
f 70//4 53//4 62//4
f 71//4 72//4 70//4
f 71//4 70//4 59//4
f 69//4 58//4 70//4
f 69//4 70//4 72//4
f 52//4 68//4 71//4
f 52//4 71//4 59//4
f 68//4 52//4 58//4
f 68//4 58//4 69//4
f 57//5 58//5 52//5
f 57//5 52//5 51//5
f 50//6 49//6 53//6
f 50//6 53//6 54//6
f 60//3 59//3 56//3
f 60//3 56//3 55//3
f 70//1 62//1 61//1
f 70//1 61//1 65//1
f 65//6 56//6 59//6
f 65//6 59//6 70//6
f 55//5 61//5 62//5
f 55//5 62//5 60//5
f 66//3 71//3 68//3
f 66//3 68//3 63//3
f 64//1 69//1 72//1
f 64//1 72//1 67//1
f 69//6 64//6 63//6
f 69//6 63//6 68//6
f 71//5 66//5 67//5
f 71//5 67//5 72//5
o DoorFR_door
v 9.750124 26.297466 0.998465
v 9.750124 26.297466 -0.001535
v 9.750124 0.347465 -0.001535
v 9.750124 0.347465 0.998465
v 20.250126 26.297464 0.998465
v 20.250126 26.297464 -0.001535
v 10.529423 25.007938 -0.001535
v 10.529423 13.597517 -0.001535
v 20.250126 0.347464 -0.001535
v 20.250126 0.347464 0.998465
v 10.529423 13.597517 0.998465
v 10.529423 25.007938 0.998465
v 19.521610 25.007938 -0.001535
v 19.521610 25.007938 0.998465
v 10.529423 1.592445 -0.001535
v 19.521610 1.592444 -0.001535
v 19.521610 13.597517 -0.001535
v 10.529423 13.076900 -0.001535
v 19.521610 13.076900 -0.001535
v 10.529423 1.592445 0.998465
v 19.521610 1.592444 0.998465
v 19.521610 13.597517 0.998465
v 10.529423 13.076900 0.998465
v 19.521610 13.076900 0.998465
g DoorFR_door_GreySteel
usemtl GreySteel
s off
f 73//1 74//1 75//1
f 73//1 75//1 76//1
f 74//2 78//2 85//2
f 74//2 85//2 79//2
f 74//2 79//2 80//2
f 74//2 80//2 75//2
f 78//2 81//2 89//2
f 78//2 89//2 85//2
f 90//2 80//2 89//2
f 90//2 89//2 91//2
f 89//2 81//2 88//2
f 89//2 88//2 91//2
f 90//2 87//2 75//2
f 90//2 75//2 80//2
f 81//2 75//2 87//2
f 81//2 87//2 88//2
f 82//3 81//3 78//3
f 82//3 78//3 77//3
f 73//4 84//4 86//4
f 73//4 86//4 77//4
f 73//4 76//4 83//4
f 73//4 83//4 84//4
f 94//4 82//4 77//4
f 94//4 77//4 86//4
f 95//4 96//4 94//4
f 95//4 94//4 83//4
f 93//4 82//4 94//4
f 93//4 94//4 96//4
f 76//4 92//4 95//4
f 76//4 95//4 83//4
f 92//4 76//4 82//4
f 92//4 82//4 93//4
f 81//5 82//5 76//5
f 81//5 76//5 75//5
f 74//6 73//6 77//6
f 74//6 77//6 78//6
f 84//3 83//3 80//3
f 84//3 80//3 79//3
f 94//1 86//1 85//1
f 94//1 85//1 89//1
f 89//6 80//6 83//6
f 89//6 83//6 94//6
f 79//5 85//5 86//5
f 79//5 86//5 84//5
f 90//3 95//3 92//3
f 90//3 92//3 87//3
f 88//1 93//1 96//1
f 88//1 96//1 91//1
f 93//6 88//6 87//6
f 93//6 87//6 92//6
f 95//5 90//5 91//5
f 95//5 91//5 96//5
o DoorBL_door
v -10.502883 26.297462 0.001510
v -10.502883 26.297462 -0.998490
v -10.502883 0.347460 -0.998490
v -10.502883 0.347460 0.001510
v -0.002882 26.297459 0.001510
v -0.002882 26.297459 -0.998490
v -9.723585 25.007935 -0.998490
v -9.723585 13.597512 -0.998490
v -0.002882 0.347459 -0.998490
v -0.002882 0.347459 0.001510
v -9.723585 13.597512 0.001510
v -9.723585 25.007935 0.001510
v -0.731396 25.007935 -0.998490
v -0.731396 25.007935 0.001510
v -9.723585 1.592441 -0.998490
v -0.731397 1.592440 -0.998490
v -0.731396 13.597512 -0.998490
v -9.723585 13.076895 -0.998490
v -0.731397 13.076895 -0.998490
v -9.723585 1.592441 0.001510
v -0.731397 1.592440 0.001510
v -0.731396 13.597512 0.001510
v -9.723585 13.076895 0.001510
v -0.731397 13.076895 0.001510
g DoorBL_door_GreySteel
usemtl GreySteel
s off
f 97//1 98//1 99//1
f 97//1 99//1 100//1
f 98//2 102//2 109//2
f 98//2 109//2 103//2
f 98//2 103//2 104//2
f 98//2 104//2 99//2
f 102//2 105//2 113//2
f 102//2 113//2 109//2
f 114//2 104//2 113//2
f 114//2 113//2 115//2
f 113//2 105//2 112//2
f 113//2 112//2 115//2
f 114//2 111//2 99//2
f 114//2 99//2 104//2
f 105//2 99//2 111//2
f 105//2 111//2 112//2
f 106//3 105//3 102//3
f 106//3 102//3 101//3
f 97//4 108//4 110//4
f 97//4 110//4 101//4
f 97//4 100//4 107//4
f 97//4 107//4 108//4
f 118//4 106//4 101//4
f 118//4 101//4 110//4
f 119//4 120//4 118//4
f 119//4 118//4 107//4
f 117//4 106//4 118//4
f 117//4 118//4 120//4
f 100//4 116//4 119//4
f 100//4 119//4 107//4
f 116//4 100//4 106//4
f 116//4 106//4 117//4
f 105//5 106//5 100//5
f 105//5 100//5 99//5
f 98//6 97//6 101//6
f 98//6 101//6 102//6
f 108//3 107//3 104//3
f 108//3 104//3 103//3
f 118//1 110//1 109//1
f 118//1 109//1 113//1
f 113//6 104//6 107//6
f 113//6 107//6 118//6
f 103//5 109//5 110//5
f 103//5 110//5 108//5
f 114//3 119//3 116//3
f 114//3 116//3 111//3
f 112//1 117//1 120//1
f 112//1 120//1 115//1
f 117//6 112//6 111//6
f 117//6 111//6 116//6
f 119//5 114//5 115//5
f 119//5 115//5 120//5
o FLBWindow_bottomWindow
v -19.524193 1.554014 0.583684
v -19.524193 1.554014 0.383684
v -10.441149 1.554014 0.383684
v -10.441149 1.554014 0.583684
v -19.524193 13.123842 0.583684
v -19.524193 13.123842 0.383684
v -10.441149 13.123842 0.383684
v -10.441149 13.123842 0.583684
g FLBWindow_bottomWindow_Glass
usemtl Glass
s off
f 122//1 121//1 125//1
f 122//1 125//1 126//1
f 126//2 127//2 123//2
f 126//2 123//2 122//2
f 127//3 128//3 124//3
f 127//3 124//3 123//3
f 121//4 124//4 128//4
f 121//4 128//4 125//4
f 121//5 122//5 123//5
f 121//5 123//5 124//5
f 128//6 127//6 126//6
f 128//6 126//6 125//6
o FLTWindow_topWindow
v -19.503550 13.542728 0.583684
v -19.503550 13.542728 0.383684
v -10.423092 13.542728 0.383684
v -10.423092 13.542728 0.583684
v -19.503550 25.029423 0.583684
v -19.503550 25.029423 0.383684
v -10.423092 25.029423 0.383684
v -10.423092 25.029423 0.583684
g FLTWindow_topWindow_Glass
usemtl Glass
s off
f 130//1 129//1 133//1
f 130//1 133//1 134//1
f 134//2 135//2 131//2
f 134//2 131//2 130//2
f 135//3 136//3 132//3
f 135//3 132//3 131//3
f 129//4 132//4 136//4
f 129//4 136//4 133//4
f 129//5 130//5 131//5
f 129//5 131//5 132//5
f 136//6 135//6 134//6
f 136//6 134//6 133//6
o DoorFL_door
v -20.251114 26.297466 0.998465
v -20.251114 26.297466 -0.001535
v -20.251114 0.347465 -0.001535
v -20.251114 0.347465 0.998465
v -9.751112 26.297464 0.998465
v -9.751112 26.297464 -0.001535
v -19.471815 25.007938 -0.001535
v -19.471815 13.597517 -0.001535
v -9.751112 0.347464 -0.001535
v -9.751112 0.347464 0.998465
v -19.471815 13.597517 0.998465
v -19.471815 25.007938 0.998465
v -10.479626 25.007938 -0.001535
v -10.479626 25.007938 0.998465
v -19.471815 1.592445 -0.001535
v -10.479627 1.592444 -0.001535
v -10.479626 13.597517 -0.001535
v -19.471815 13.076900 -0.001535
v -10.479627 13.076900 -0.001535
v -19.471815 1.592445 0.998465
v -10.479627 1.592444 0.998465
v -10.479626 13.597517 0.998465
v -19.471815 13.076900 0.998465
v -10.479627 13.076900 0.998465
g DoorFL_door_GreySteel
usemtl GreySteel
s off
f 137//1 138//1 139//1
f 137//1 139//1 140//1
f 138//2 142//2 149//2
f 138//2 149//2 143//2
f 138//2 143//2 144//2
f 138//2 144//2 139//2
f 142//2 145//2 153//2
f 142//2 153//2 149//2
f 154//2 144//2 153//2
f 154//2 153//2 155//2
f 153//2 145//2 152//2
f 153//2 152//2 155//2
f 154//2 151//2 139//2
f 154//2 139//2 144//2
f 145//2 139//2 151//2
f 145//2 151//2 152//2
f 146//3 145//3 142//3
f 146//3 142//3 141//3
f 137//4 148//4 150//4
f 137//4 150//4 141//4
f 137//4 140//4 147//4
f 137//4 147//4 148//4
f 158//4 146//4 141//4
f 158//4 141//4 150//4
f 159//4 160//4 158//4
f 159//4 158//4 147//4
f 157//4 146//4 158//4
f 157//4 158//4 160//4
f 140//4 156//4 159//4
f 140//4 159//4 147//4
f 156//4 140//4 146//4
f 156//4 146//4 157//4
f 145//5 146//5 140//5
f 145//5 140//5 139//5
f 138//6 137//6 141//6
f 138//6 141//6 142//6
f 148//3 147//3 144//3
f 148//3 144//3 143//3
f 158//1 150//1 149//1
f 158//1 149//1 153//1
f 153//6 144//6 147//6
f 153//6 147//6 158//6
f 143//5 149//5 150//5
f 143//5 150//5 148//5
f 154//3 159//3 156//3
f 154//3 156//3 151//3
f 152//1 157//1 160//1
f 152//1 160//1 155//1
f 157//6 152//6 151//6
f 157//6 151//6 156//6
f 159//5 154//5 155//5
f 159//5 155//5 160//5
o BackSensor_sensor
v 0.634168 27.511295 -1.001424
v 0.597374 27.389999 -1.001424
v 0.537622 27.278212 -1.001424
v 0.457210 27.180229 -1.001424
v 0.359228 27.099817 -1.001424
v 0.247440 27.040066 -1.001424
v 0.126144 27.003271 -1.001424
v -0.634167 27.511295 -1.001423
v -0.597373 27.389999 -1.001423
v -0.537621 27.278212 -1.001423
v -0.457209 27.180229 -1.001423
v -0.359227 27.099817 -1.001423
v -0.247440 27.040066 -1.001423
v -0.126144 27.003271 -1.001423
v -0.621982 27.511295 -1.125143
v -0.585895 27.389999 -1.117965
v -0.527291 27.278212 -1.106308
v -0.448424 27.180229 -1.090620
v -0.352325 27.099817 -1.071505
v -0.242685 27.040066 -1.049696
v -0.123720 27.003271 -1.026033
v -0.585895 27.511295 -1.244108
v -0.551901 27.389999 -1.230028
v -0.496697 27.278212 -1.207162
v -0.422406 27.180229 -1.176390
v -0.331882 27.099817 -1.138893
v -0.228605 27.040066 -1.096115
v -0.116541 27.003271 -1.049697
v -0.527291 27.511295 -1.353748
v -0.496698 27.389999 -1.333306
v -0.447016 27.278212 -1.300110
v -0.380156 27.180229 -1.255435
v -0.298686 27.099817 -1.200999
v -0.205739 27.040066 -1.138894
v -0.104885 27.003271 -1.071505
v -0.448424 27.511295 -1.449847
v -0.422407 27.389999 -1.423830
v -0.380156 27.278212 -1.381579
v -0.323296 27.180229 -1.324719
v -0.254012 27.099817 -1.255435
v -0.174966 27.040066 -1.176390
v -0.089197 27.003271 -1.090621
v -0.352325 27.511295 -1.528714
v -0.331883 27.389999 -1.498121
v -0.298687 27.278212 -1.448439
v -0.254012 27.180229 -1.381579
v -0.199576 27.099817 -1.300110
v -0.137470 27.040066 -1.207162
v -0.070082 27.003271 -1.106308
v 0.000000 26.990847 -1.001424
v -0.242686 27.511295 -1.587318
v -0.228605 27.389999 -1.553324
v -0.205739 27.278212 -1.498121
v -0.174967 27.180229 -1.423830
v -0.137470 27.099817 -1.333306
v -0.094691 27.040066 -1.230028
v -0.048273 27.003271 -1.117965
v -0.123720 27.511295 -1.623406
v -0.116542 27.389999 -1.587318
v -0.104885 27.278212 -1.528715
v -0.089197 27.180229 -1.449848
v -0.070082 27.099817 -1.353748
v -0.048273 27.040066 -1.244109
v -0.024609 27.003271 -1.125144
v -0.000000 27.511295 -1.635591
v -0.000000 27.389999 -1.598797
v -0.000000 27.278212 -1.539045
v -0.000000 27.180229 -1.458633
v -0.000000 27.099817 -1.360651
v -0.000000 27.040066 -1.248864
v 0.000000 27.003271 -1.127567
v 0.123720 27.511295 -1.623406
v 0.116541 27.389999 -1.587318
v 0.104884 27.278212 -1.528715
v 0.089197 27.180229 -1.449848
v 0.070082 27.099817 -1.353748
v 0.048273 27.040066 -1.244109
v 0.024610 27.003271 -1.125144
v 0.242685 27.511295 -1.587318
v 0.228604 27.389999 -1.553325
v 0.205738 27.278212 -1.498121
v 0.174966 27.180229 -1.423830
v 0.137470 27.099817 -1.333306
v 0.094691 27.040066 -1.230029
v 0.048273 27.003271 -1.117965
v 0.352324 27.511295 -1.528715
v 0.331882 27.389999 -1.498122
v 0.298686 27.278212 -1.448440
v 0.254012 27.180229 -1.381580
v 0.199576 27.099817 -1.300110
v 0.137470 27.040066 -1.207163
v 0.070082 27.003271 -1.106308
v 0.448424 27.511295 -1.449848
v 0.422406 27.389999 -1.423831
v 0.380156 27.278212 -1.381580
v 0.323296 27.180229 -1.324720
v 0.254012 27.099817 -1.255436
v 0.174967 27.040066 -1.176390
v 0.089197 27.003271 -1.090621
v 0.527291 27.511295 -1.353749
v 0.496697 27.389999 -1.333307
v 0.447016 27.278212 -1.300110
v 0.380156 27.180229 -1.255436
v 0.298687 27.099817 -1.201000
v 0.205739 27.040066 -1.138894
v 0.104885 27.003271 -1.071505
v 0.585894 27.511295 -1.244110
v 0.551901 27.389999 -1.230029
v 0.496697 27.278212 -1.207163
v 0.422407 27.180229 -1.176391
v 0.331883 27.099817 -1.138894
v 0.228605 27.040066 -1.096115
v 0.116542 27.003271 -1.049697
v 0.621982 27.511295 -1.125144
v 0.585895 27.389999 -1.117966
v 0.527291 27.278212 -1.106309
v 0.448425 27.180229 -1.090621
v 0.352325 27.099817 -1.071506
v 0.242686 27.040066 -1.049697
v 0.123720 27.003271 -1.026033
v -0.097041 27.229219 -1.489281
v -0.000000 27.229219 -1.498839
v -0.052443 27.278212 -1.533880
v -0.044599 27.180229 -1.454240
v 0.097041 27.229219 -1.489281
v 0.052442 27.278212 -1.533880
v 0.044598 27.180229 -1.454241
v -0.048521 27.229219 -1.494060
v 0.048520 27.229219 -1.494060
vn -0.290165 -0.956550 -0.028578
vn -0.952718 -0.289003 -0.093833
vn -0.878614 -0.469627 -0.086535
vn -0.770780 -0.632562 -0.075914
vn -0.633158 -0.771506 -0.062360
vn -0.470890 -0.880972 -0.046378
vn -0.608827 -0.771506 -0.184685
vn -0.452794 -0.880972 -0.137353
vn -0.279014 -0.956550 -0.084638
vn -0.916106 -0.289003 -0.277897
vn -0.844849 -0.469627 -0.256282
vn -0.741160 -0.632562 -0.224828
vn -0.844288 -0.289003 -0.451281
vn -0.778618 -0.469627 -0.416179
vn -0.683057 -0.632562 -0.365101
vn -0.561098 -0.771506 -0.299912
vn -0.417297 -0.880972 -0.223049
vn -0.257141 -0.956550 -0.137444
vn -0.365764 -0.880972 -0.300174
vn -0.225386 -0.956550 -0.184969
vn -0.740025 -0.289004 -0.607322
vn -0.682464 -0.469627 -0.560083
vn -0.598705 -0.632562 -0.491343
vn -0.491807 -0.771506 -0.403614
vn -0.491345 -0.632562 -0.598704
vn -0.403616 -0.771506 -0.491806
vn -0.300175 -0.880972 -0.365764
vn -0.184970 -0.956550 -0.225386
vn -0.607323 -0.289003 -0.740024
vn -0.560084 -0.469628 -0.682463
vn -0.451282 -0.289003 -0.844288
vn -0.416180 -0.469628 -0.778617
vn -0.365102 -0.632562 -0.683056
vn -0.299913 -0.771506 -0.561097
vn -0.223050 -0.880972 -0.417297
vn -0.137445 -0.956550 -0.257141
vn -0.137354 -0.880972 -0.452793
vn -0.084638 -0.956550 -0.279014
vn -0.277899 -0.289003 -0.916106
vn -0.256283 -0.469628 -0.844848
vn -0.224831 -0.632554 -0.741166
vn -0.224835 -0.632562 -0.741157
vn -0.224828 -0.632569 -0.741154
vn -0.184686 -0.771506 -0.608826
vn -0.075917 -0.632554 -0.770787
vn -0.062361 -0.771506 -0.633158
vn -0.062361 -0.771507 -0.633158
vn 0.000000 0.000000 0.000000
vn -0.046379 -0.880972 -0.470890
vn -0.028579 -0.956550 -0.290165
vn -0.093835 -0.289003 -0.952718
vn -0.086536 -0.469628 -0.878613
vn 0.093833 -0.289003 -0.952719
vn 0.086535 -0.469628 -0.878613
vn 0.086534 -0.469628 -0.878613
vn 0.075914 -0.632554 -0.770787
vn 0.062360 -0.771506 -0.633158
vn 0.062360 -0.771507 -0.633158
vn 0.046378 -0.880972 -0.470890
vn 0.028578 -0.956550 -0.290165
vn 0.137353 -0.880972 -0.452794
vn 0.084638 -0.956550 -0.279014
vn 0.277897 -0.289002 -0.916106
vn 0.256281 -0.469628 -0.844849
vn 0.224828 -0.632562 -0.741160
vn 0.224844 -0.632553 -0.741163
vn 0.224826 -0.632570 -0.741154
vn 0.184685 -0.771506 -0.608827
vn 0.365100 -0.632562 -0.683057
vn 0.299912 -0.771506 -0.561098
vn 0.223050 -0.880972 -0.417297
vn 0.137444 -0.956550 -0.257141
vn 0.451280 -0.289002 -0.844289
vn 0.416178 -0.469628 -0.778617
vn 0.607322 -0.289002 -0.740025
vn 0.560083 -0.469628 -0.682464
vn 0.491344 -0.632562 -0.598705
vn 0.403614 -0.771506 -0.491806
vn 0.300175 -0.880972 -0.365764
vn 0.184969 -0.956550 -0.225386
vn 0.491805 -0.771506 -0.403615
vn 0.365764 -0.880972 -0.300175
vn 0.225386 -0.956550 -0.184970
vn 0.740024 -0.289002 -0.607323
vn 0.682463 -0.469628 -0.560084
vn 0.598704 -0.632561 -0.491345
vn 0.778617 -0.469628 -0.416180
vn 0.683057 -0.632561 -0.365102
vn 0.561097 -0.771506 -0.299913
vn 0.417297 -0.880972 -0.223050
vn 0.257141 -0.956550 -0.137445
vn 0.844288 -0.289003 -0.451282
vn 0.279014 -0.956550 -0.084638
vn 0.916106 -0.289003 -0.277898
vn 0.844848 -0.469628 -0.256283
vn 0.741160 -0.632561 -0.224829
vn 0.608826 -0.771507 -0.184686
vn 0.452794 -0.880972 -0.137354
vn 0.000001 0.000001 1.000000
vn 0.000001 -0.000000 1.000000
vn 0.000001 -0.000001 1.000000
vn 0.000001 0.000002 1.000000
vn 0.000001 -0.000005 1.000000
vn -0.098016 -0.995138 -0.009654
vn -0.094249 -0.995138 -0.028590
vn -0.086860 -0.995138 -0.046428
vn -0.076134 -0.995138 -0.062481
vn -0.062482 -0.995138 -0.076133
vn -0.046428 -0.995138 -0.086860
vn -0.028590 -0.995138 -0.094249
vn -0.009653 -0.995138 -0.098016
vn 0.009653 -0.995138 -0.098016
vn 0.028590 -0.995138 -0.094249
vn 0.046428 -0.995138 -0.086860
vn 0.062481 -0.995138 -0.076134
vn 0.076134 -0.995138 -0.062482
vn 0.086860 -0.995138 -0.046428
vn 0.094249 -0.995138 -0.028590
vn 0.633158 -0.771506 -0.062363
vn 0.470889 -0.880972 -0.046381
vn 0.290165 -0.956550 -0.028580
vn 0.098016 -0.995138 -0.009654
vn 0.952718 -0.289003 -0.093839
vn 0.878613 -0.469627 -0.086540
vn 0.770780 -0.632562 -0.075919
vn -0.075916 -0.632569 -0.770775
vn -0.075915 -0.632569 -0.770775
vn -0.075917 -0.632554 -0.770786
vn 0.075914 -0.632569 -0.770775
vn 0.075916 -0.632553 -0.770787
g BackSensor_sensor_Black
usemtl Black
s off
f 174//7 173//7 180//7
f 174//7 180//7 181//7
f 169//8 168//8 175//8
f 169//8 175//8 176//8
f 170//9 169//9 176//9
f 170//9 176//9 177//9
f 171//10 170//10 177//10
f 171//10 177//10 178//10
f 172//11 171//11 178//11
f 172//11 178//11 179//11
f 173//12 172//12 179//12
f 173//12 179//12 180//12
f 179//13 178//13 185//13
f 179//13 185//13 186//13
f 180//14 179//14 186//14
f 180//14 186//14 187//14
f 181//15 180//15 187//15
f 181//15 187//15 188//15
f 176//16 175//16 182//16
f 176//16 182//16 183//16
f 177//17 176//17 183//17
f 177//17 183//17 184//17
f 178//18 177//18 184//18
f 178//18 184//18 185//18
f 183//19 182//19 189//19
f 183//19 189//19 190//19
f 184//20 183//20 190//20
f 184//20 190//20 191//20
f 185//21 184//21 191//21
f 185//21 191//21 192//21
f 186//22 185//22 192//22
f 186//22 192//22 193//22
f 187//23 186//23 193//23
f 187//23 193//23 194//23
f 188//24 187//24 194//24
f 188//24 194//24 195//24
f 194//25 193//25 200//25
f 194//25 200//25 201//25
f 195//26 194//26 201//26
f 195//26 201//26 202//26
f 190//27 189//27 196//27
f 190//27 196//27 197//27
f 191//28 190//28 197//28
f 191//28 197//28 198//28
f 192//29 191//29 198//29
f 192//29 198//29 199//29
f 193//30 192//30 199//30
f 193//30 199//30 200//30
f 199//31 198//31 205//31
f 199//31 205//31 206//31
f 200//32 199//32 206//32
f 200//32 206//32 207//32
f 201//33 200//33 207//33
f 201//33 207//33 208//33
f 202//34 201//34 208//34
f 202//34 208//34 209//34
f 197//35 196//35 203//35
f 197//35 203//35 204//35
f 198//36 197//36 204//36
f 198//36 204//36 205//36
f 204//37 203//37 211//37
f 204//37 211//37 212//37
f 205//38 204//38 212//38
f 205//38 212//38 213//38
f 206//39 205//39 213//39
f 206//39 213//39 214//39
f 207//40 206//40 214//40
f 207//40 214//40 215//40
f 208//41 207//41 215//41
f 208//41 215//41 216//41
f 209//42 208//42 216//42
f 209//42 216//42 217//42
f 216//43 215//43 222//43
f 216//43 222//43 223//43
f 217//44 216//44 223//44
f 217//44 223//44 224//44
f 212//45 211//45 218//45
f 212//45 218//45 219//45
f 213//46 212//46 219//46
f 213//46 219//46 220//46
f 213//47 220//47 281//47
f 214//48 213//48 281//48
f 214//49 281//49 221//49
f 215//50 214//50 221//50
f 215//50 221//50 222//50
f 288//51 283//51 227//51
f 288//51 227//51 282//51
f 222//52 221//52 229//52
f 221//53 228//53 229//53
f 221//54 284//54 228//54
f 223//55 222//55 229//55
f 223//55 229//55 230//55
f 224//56 223//56 230//56
f 224//56 230//56 231//56
f 219//57 218//57 225//57
f 219//57 225//57 226//57
f 219//58 226//58 227//58
f 220//58 219//58 227//58
f 220//6 227//6 283//6
f 226//59 225//59 232//59
f 226//59 232//59 233//59
f 226//60 233//60 234//60
f 227//61 226//61 234//61
f 227//5 234//5 286//5
f 289//62 286//62 234//62
f 289//62 234//62 285//62
f 229//63 235//63 236//63
f 229//64 228//64 235//64
f 228//5 287//5 235//5
f 230//65 229//65 236//65
f 230//65 236//65 237//65
f 231//66 230//66 237//66
f 231//66 237//66 238//66
f 237//67 236//67 243//67
f 237//67 243//67 244//67
f 238//68 237//68 244//68
f 238//68 244//68 245//68
f 233//69 232//69 239//69
f 233//69 239//69 240//69
f 234//70 233//70 240//70
f 234//70 240//70 241//70
f 234//71 241//71 242//71
f 285//72 234//72 242//72
f 235//73 285//73 242//73
f 236//74 235//74 242//74
f 236//74 242//74 243//74
f 242//75 241//75 248//75
f 242//75 248//75 249//75
f 243//76 242//76 249//76
f 243//76 249//76 250//76
f 244//77 243//77 250//77
f 244//77 250//77 251//77
f 245//78 244//78 251//78
f 245//78 251//78 252//78
f 240//79 239//79 246//79
f 240//79 246//79 247//79
f 241//80 240//80 247//80
f 241//80 247//80 248//80
f 247//81 246//81 253//81
f 247//81 253//81 254//81
f 248//82 247//82 254//82
f 248//82 254//82 255//82
f 249//83 248//83 255//83
f 249//83 255//83 256//83
f 250//84 249//84 256//84
f 250//84 256//84 257//84
f 251//85 250//85 257//85
f 251//85 257//85 258//85
f 252//86 251//86 258//86
f 252//86 258//86 259//86
f 257//87 256//87 263//87
f 257//87 263//87 264//87
f 258//88 257//88 264//88
f 258//88 264//88 265//88
f 259//89 258//89 265//89
f 259//89 265//89 266//89
f 254//90 253//90 260//90
f 254//90 260//90 261//90
f 255//91 254//91 261//91
f 255//91 261//91 262//91
f 256//92 255//92 262//92
f 256//92 262//92 263//92
f 262//93 261//93 268//93
f 262//93 268//93 269//93
f 263//94 262//94 269//94
f 263//94 269//94 270//94
f 264//95 263//95 270//95
f 264//95 270//95 271//95
f 265//96 264//96 271//96
f 265//96 271//96 272//96
f 266//97 265//97 272//97
f 266//97 272//97 273//97
f 261//98 260//98 267//98
f 261//98 267//98 268//98
f 273//99 272//99 279//99
f 273//99 279//99 280//99
f 268//100 267//100 274//100
f 268//100 274//100 275//100
f 269//101 268//101 275//101
f 269//101 275//101 276//101
f 270//102 269//102 276//102
f 270//102 276//102 277//102
f 271//103 270//103 277//103
f 271//103 277//103 278//103
f 272//104 271//104 278//104
f 272//104 278//104 279//104
f 168//6 161//6 274//6
f 175//6 168//6 274//6
f 175//6 274//6 267//6
f 182//6 175//6 267//6
f 182//6 267//6 260//6
f 182//6 260//6 189//6
f 260//6 253//6 189//6
f 253//6 196//6 189//6
f 253//6 246//6 196//6
f 246//6 203//6 196//6
f 246//6 239//6 203//6
f 239//6 211//6 203//6
f 239//6 232//6 211//6
f 232//6 218//6 211//6
f 232//6 225//6 218//6
f 161//105 168//105 169//105
f 161//106 169//106 162//106
f 169//107 163//107 162//107
f 169//106 170//106 163//106
f 170//106 164//106 163//106
f 170//106 171//106 164//106
f 171//106 165//106 164//106
f 171//106 172//106 165//106
f 172//108 166//108 165//108
f 172//106 173//106 166//106
f 173//107 167//107 166//107
f 173//105 174//105 167//105
f 174//109 210//109 167//109
f 210//110 174//110 181//110
f 210//111 181//111 188//111
f 210//112 188//112 195//112
f 210//113 195//113 202//113
f 210//114 202//114 209//114
f 210//115 209//115 217//115
f 210//116 217//116 224//116
f 210//117 224//117 231//117
f 210//118 231//118 238//118
f 210//119 238//119 245//119
f 210//120 245//120 252//120
f 210//121 252//121 259//121
f 210//122 259//122 266//122
f 210//123 266//123 273//123
f 210//124 273//124 280//124
f 278//125 277//125 164//125
f 278//125 164//125 165//125
f 279//126 278//126 165//126
f 279//126 165//126 166//126
f 280//127 279//127 166//127
f 280//127 166//127 167//127
f 210//128 280//128 167//128
f 161//129 162//129 275//129
f 161//129 275//129 274//129
f 276//130 275//130 162//130
f 276//130 162//130 163//130
f 277//131 276//131 163//131
f 277//131 163//131 164//131
f 284//132 288//132 282//132
f 284//132 282//132 228//132
f 221//133 281//133 288//133
f 221//133 288//133 284//133
f 281//134 220//134 283//134
f 281//134 283//134 288//134
f 287//135 289//135 285//135
f 287//135 285//135 235//135
f 228//135 282//135 289//135
f 228//135 289//135 287//135
f 282//136 227//136 286//136
f 282//136 286//136 289//136
o FrontSensor_sensor
v -0.634168 27.511295 0.995214
v -0.597373 27.389999 0.995214
v -0.537622 27.278212 0.995214
v -0.457210 27.180229 0.995214
v -0.359227 27.099817 0.995214
v -0.247440 27.040066 0.995214
v -0.126144 27.003271 0.995214
v 0.634168 27.511295 0.995214
v 0.597373 27.389999 0.995214
v 0.537621 27.278212 0.995214
v 0.457210 27.180229 0.995214
v 0.359227 27.099817 0.995214
v 0.247440 27.040066 0.995214
v 0.126144 27.003271 0.995214
v 0.621982 27.511295 1.118934
v 0.585895 27.389999 1.111755
v 0.527291 27.278212 1.100098
v 0.448424 27.180229 1.084411
v 0.352325 27.099817 1.065295
v 0.242686 27.040066 1.043487
v 0.123720 27.003271 1.019823
v 0.585895 27.511295 1.237899
v 0.551901 27.389999 1.223818
v 0.496697 27.278212 1.200952
v 0.422406 27.180229 1.170180
v 0.331883 27.099817 1.132684
v 0.228605 27.040066 1.089905
v 0.116542 27.003271 1.043487
v 0.527291 27.511295 1.347538
v 0.496698 27.389999 1.327096
v 0.447016 27.278212 1.293900
v 0.380156 27.180229 1.249226
v 0.298687 27.099817 1.194790
v 0.205739 27.040066 1.132684
v 0.104885 27.003271 1.065295
v 0.448424 27.511295 1.443638
v 0.422407 27.389999 1.417620
v 0.380156 27.278212 1.375369
v 0.323296 27.180229 1.318510
v 0.254012 27.099817 1.249226
v 0.174967 27.040066 1.170180
v 0.089197 27.003271 1.084411
v 0.352325 27.511295 1.522505
v 0.331883 27.389999 1.491911
v 0.298686 27.278212 1.442230
v 0.254012 27.180229 1.375369
v 0.199576 27.099817 1.293900
v 0.137470 27.040066 1.200952
v 0.070082 27.003271 1.100098
v 0.000000 26.990847 0.995214
v 0.242685 27.511295 1.581108
v 0.228605 27.389999 1.547114
v 0.205739 27.278212 1.491911
v 0.174967 27.180229 1.417620
v 0.137470 27.099817 1.327096
v 0.094691 27.040066 1.223818
v 0.048273 27.003271 1.111755
v 0.123720 27.511295 1.617196
v 0.116542 27.389999 1.581108
v 0.104885 27.278212 1.522505
v 0.089197 27.180229 1.443638
v 0.070082 27.099817 1.347538
v 0.048273 27.040066 1.237899
v 0.024609 27.003271 1.118934
v -0.000000 27.511295 1.629381
v -0.000000 27.389999 1.592587
v -0.000000 27.278212 1.532835
v -0.000000 27.180229 1.452423
v -0.000000 27.099817 1.354441
v 0.000000 27.040066 1.242654
v 0.000000 27.003271 1.121357
v -0.123720 27.511295 1.617196
v -0.116542 27.389999 1.581108
v -0.104885 27.278212 1.522505
v -0.089197 27.180229 1.443638
v -0.070082 27.099817 1.347538
v -0.048273 27.040066 1.237899
v -0.024609 27.003271 1.118934
v -0.242685 27.511295 1.581108
v -0.228605 27.389999 1.547114
v -0.205739 27.278212 1.491911
v -0.174966 27.180229 1.417620
v -0.137470 27.099817 1.327096
v -0.094691 27.040066 1.223818
v -0.048273 27.003271 1.111755
v -0.352325 27.511295 1.522505
v -0.331883 27.389999 1.491911
v -0.298686 27.278212 1.442229
v -0.254012 27.180229 1.375369
v -0.199576 27.099817 1.293900
v -0.137470 27.040066 1.200952
v -0.070082 27.003271 1.100098
v -0.448424 27.511295 1.443638
v -0.422407 27.389999 1.417620
v -0.380156 27.278212 1.375369
v -0.323296 27.180229 1.318509
v -0.254012 27.099817 1.249225
v -0.174966 27.040066 1.170180
v -0.089197 27.003271 1.084411
v -0.527291 27.511295 1.347538
v -0.496698 27.389999 1.327096
v -0.447016 27.278212 1.293900
v -0.380156 27.180229 1.249225
v -0.298686 27.099817 1.194789
v -0.205739 27.040066 1.132684
v -0.104885 27.003271 1.065295
v -0.585894 27.511295 1.237899
v -0.551901 27.389999 1.223818
v -0.496697 27.278212 1.200952
v -0.422406 27.180229 1.170180
v -0.331883 27.099817 1.132684
v -0.228605 27.040066 1.089905
v -0.116542 27.003271 1.043487
v -0.621982 27.511295 1.118933
v -0.585895 27.389999 1.111755
v -0.527291 27.278212 1.100098
v -0.448424 27.180229 1.084411
v -0.352325 27.099817 1.065295
v -0.242685 27.040066 1.043487
v -0.123720 27.003271 1.019823
v 0.097041 27.229219 1.483071
v -0.000000 27.229219 1.492629
v 0.052442 27.278212 1.527670
v 0.044599 27.180229 1.448030
v -0.097041 27.229219 1.483071
v -0.052442 27.278212 1.527670
v -0.044599 27.180229 1.448030
v 0.048520 27.229219 1.487850
v -0.048520 27.229219 1.487850
vn 0.290165 -0.956550 0.028579
vn 0.952718 -0.289003 0.093835
vn 0.878614 -0.469627 0.086536
vn 0.770780 -0.632562 0.075915
vn 0.633158 -0.771506 0.062361
vn 0.470890 -0.880972 0.046379
vn 0.608826 -0.771506 0.184686
vn 0.452794 -0.880972 0.137354
vn 0.279014 -0.956550 0.084638
vn 0.916106 -0.289003 0.277898
vn 0.844849 -0.469628 0.256282
vn 0.741160 -0.632562 0.224829
vn 0.844288 -0.289003 0.451282
vn 0.778617 -0.469628 0.416180
vn 0.683057 -0.632562 0.365102
vn 0.561098 -0.771506 0.299913
vn 0.417297 -0.880972 0.223050
vn 0.257141 -0.956550 0.137445
vn 0.365764 -0.880972 0.300175
vn 0.225386 -0.956550 0.184970
vn 0.740025 -0.289003 0.607323
vn 0.682463 -0.469627 0.560084
vn 0.598704 -0.632562 0.491344
vn 0.491806 -0.771506 0.403615
vn 0.491344 -0.632562 0.598704
vn 0.403615 -0.771506 0.491806
vn 0.300175 -0.880972 0.365764
vn 0.184970 -0.956550 0.225386
vn 0.607322 -0.289003 0.740025
vn 0.560084 -0.469627 0.682464
vn 0.451281 -0.289003 0.844288
vn 0.416179 -0.469628 0.778617
vn 0.365101 -0.632562 0.683057
vn 0.299913 -0.771506 0.561098
vn 0.223050 -0.880972 0.417297
vn 0.137445 -0.956550 0.257141
vn 0.137353 -0.880972 0.452794
vn 0.084638 -0.956550 0.279014
vn 0.277898 -0.289002 0.916106
vn 0.256282 -0.469628 0.844849
vn 0.224830 -0.632554 0.741166
vn 0.224834 -0.632562 0.741158
vn 0.224827 -0.632569 0.741154
vn 0.184686 -0.771506 0.608826
vn 0.075917 -0.632554 0.770787
vn 0.062360 -0.771506 0.633158
vn 0.062360 -0.771507 0.633158
vn 0.046378 -0.880972 0.470890
vn 0.028579 -0.956550 0.290165
vn 0.093834 -0.289002 0.952719
vn 0.086535 -0.469627 0.878614
vn 0.086536 -0.469628 0.878613
vn -0.093834 -0.289003 0.952718
vn -0.086535 -0.469628 0.878613
vn -0.086537 -0.469627 0.878614
vn -0.075916 -0.632554 0.770787
vn -0.062361 -0.771506 0.633158
vn -0.046379 -0.880972 0.470890
vn -0.028579 -0.956550 0.290165
vn -0.137353 -0.880972 0.452794
vn -0.084638 -0.956550 0.279014
vn -0.277899 -0.289003 0.916106
vn -0.256283 -0.469628 0.844848
vn -0.224828 -0.632562 0.741159
vn -0.224845 -0.632553 0.741162
vn -0.224827 -0.632570 0.741153
vn -0.184686 -0.771506 0.608826
vn -0.365101 -0.632562 0.683057
vn -0.299913 -0.771506 0.561098
vn -0.223050 -0.880972 0.417297
vn -0.137445 -0.956550 0.257141
vn -0.451281 -0.289003 0.844288
vn -0.416179 -0.469627 0.778617
vn -0.607323 -0.289002 0.740025
vn -0.560084 -0.469628 0.682463
vn -0.491344 -0.632562 0.598704
vn -0.403615 -0.771506 0.491806
vn -0.300175 -0.880972 0.365764
vn -0.184969 -0.956550 0.225386
vn -0.491806 -0.771506 0.403615
vn -0.365764 -0.880972 0.300175
vn -0.225386 -0.956550 0.184969
vn -0.740025 -0.289002 0.607323
vn -0.682464 -0.469628 0.560083
vn -0.598705 -0.632561 0.491344
vn -0.778617 -0.469628 0.416179
vn -0.683057 -0.632561 0.365101
vn -0.561097 -0.771506 0.299913
vn -0.417297 -0.880972 0.223050
vn -0.257141 -0.956550 0.137445
vn -0.844288 -0.289002 0.451281
vn -0.279014 -0.956550 0.084638
vn -0.916106 -0.289002 0.277897
vn -0.844849 -0.469628 0.256281
vn -0.741160 -0.632561 0.224828
vn -0.608826 -0.771506 0.184685
vn -0.452794 -0.880972 0.137353
vn 0.098016 -0.995138 0.009654
vn 0.094249 -0.995138 0.028590
vn 0.086860 -0.995138 0.046428
vn 0.076134 -0.995138 0.062482
vn 0.062482 -0.995138 0.076134
vn 0.046428 -0.995138 0.086860
vn 0.028590 -0.995138 0.094249
vn 0.009654 -0.995138 0.098016
vn -0.009654 -0.995138 0.098016
vn -0.028590 -0.995138 0.094249
vn -0.046428 -0.995138 0.086860
vn -0.062481 -0.995138 0.076134
vn -0.076134 -0.995138 0.062481
vn -0.086860 -0.995138 0.046428
vn -0.094249 -0.995138 0.028590
vn -0.633158 -0.771506 0.062363
vn -0.470889 -0.880972 0.046380
vn -0.290165 -0.956550 0.028580
vn -0.098016 -0.995138 0.009654
vn -0.952718 -0.289003 0.093838
vn -0.878613 -0.469627 0.086539
vn -0.770780 -0.632562 0.075918
vn 0.075915 -0.632569 0.770774
vn 0.075914 -0.632569 0.770774
vn 0.075916 -0.632554 0.770787
vn -0.075915 -0.632570 0.770774
vn -0.075915 -0.632569 0.770774
vn -0.075917 -0.632554 0.770787
g FrontSensor_sensor_Black
usemtl Black
s off
f 303//137 302//137 309//137
f 303//137 309//137 310//137
f 298//138 297//138 304//138
f 298//138 304//138 305//138
f 299//139 298//139 305//139
f 299//139 305//139 306//139
f 300//140 299//140 306//140
f 300//140 306//140 307//140
f 301//141 300//141 307//141
f 301//141 307//141 308//141
f 302//142 301//142 308//142
f 302//142 308//142 309//142
f 308//143 307//143 314//143
f 308//143 314//143 315//143
f 309//144 308//144 315//144
f 309//144 315//144 316//144
f 310//145 309//145 316//145
f 310//145 316//145 317//145
f 305//146 304//146 311//146
f 305//146 311//146 312//146
f 306//147 305//147 312//147
f 306//147 312//147 313//147
f 307//148 306//148 313//148
f 307//148 313//148 314//148
f 312//149 311//149 318//149
f 312//149 318//149 319//149
f 313//150 312//150 319//150
f 313//150 319//150 320//150
f 314//151 313//151 320//151
f 314//151 320//151 321//151
f 315//152 314//152 321//152
f 315//152 321//152 322//152
f 316//153 315//153 322//153
f 316//153 322//153 323//153
f 317//154 316//154 323//154
f 317//154 323//154 324//154
f 323//155 322//155 329//155
f 323//155 329//155 330//155
f 324//156 323//156 330//156
f 324//156 330//156 331//156
f 319//157 318//157 325//157
f 319//157 325//157 326//157
f 320//158 319//158 326//158
f 320//158 326//158 327//158
f 321//159 320//159 327//159
f 321//159 327//159 328//159
f 322//160 321//160 328//160
f 322//160 328//160 329//160
f 328//161 327//161 334//161
f 328//161 334//161 335//161
f 329//162 328//162 335//162
f 329//162 335//162 336//162
f 330//163 329//163 336//163
f 330//163 336//163 337//163
f 331//164 330//164 337//164
f 331//164 337//164 338//164
f 326//165 325//165 332//165
f 326//165 332//165 333//165
f 327//166 326//166 333//166
f 327//166 333//166 334//166
f 333//167 332//167 340//167
f 333//167 340//167 341//167
f 334//168 333//168 341//168
f 334//168 341//168 342//168
f 335//169 334//169 342//169
f 335//169 342//169 343//169
f 336//170 335//170 343//170
f 336//170 343//170 344//170
f 337//171 336//171 344//171
f 337//171 344//171 345//171
f 338//172 337//172 345//172
f 338//172 345//172 346//172
f 345//173 344//173 351//173
f 345//173 351//173 352//173
f 346//174 345//174 352//174
f 346//174 352//174 353//174
f 341//175 340//175 347//175
f 341//175 347//175 348//175
f 342//176 341//176 348//176
f 342//176 348//176 349//176
f 342//177 349//177 410//177
f 343//178 342//178 410//178
f 343//179 410//179 350//179
f 344//180 343//180 350//180
f 344//180 350//180 351//180
f 417//181 412//181 356//181
f 417//181 356//181 411//181
f 351//182 350//182 358//182
f 350//183 357//183 358//183
f 350//6 413//6 357//6
f 352//184 351//184 358//184
f 352//184 358//184 359//184
f 353//185 352//185 359//185
f 353//185 359//185 360//185
f 348//186 347//186 354//186
f 348//186 354//186 355//186
f 348//187 355//187 356//187
f 349//188 348//188 356//188
f 349//5 356//5 412//5
f 355//189 354//189 361//189
f 355//189 361//189 362//189
f 355//190 362//190 363//190
f 356//191 355//191 363//191
f 356//5 363//5 415//5
f 418//192 415//192 363//192
f 418//192 363//192 414//192
f 358//193 364//193 365//193
f 358//193 357//193 364//193
f 357//5 416//5 364//5
f 359//194 358//194 365//194
f 359//194 365//194 366//194
f 360//195 359//195 366//195
f 360//195 366//195 367//195
f 366//196 365//196 372//196
f 366//196 372//196 373//196
f 367//197 366//197 373//197
f 367//197 373//197 374//197
f 362//198 361//198 368//198
f 362//198 368//198 369//198
f 363//199 362//199 369//199
f 363//199 369//199 370//199
f 363//200 370//200 371//200
f 414//201 363//201 371//201
f 364//202 414//202 371//202
f 365//203 364//203 371//203
f 365//203 371//203 372//203
f 371//204 370//204 377//204
f 371//204 377//204 378//204
f 372//205 371//205 378//205
f 372//205 378//205 379//205
f 373//206 372//206 379//206
f 373//206 379//206 380//206
f 374//207 373//207 380//207
f 374//207 380//207 381//207
f 369//208 368//208 375//208
f 369//208 375//208 376//208
f 370//209 369//209 376//209
f 370//209 376//209 377//209
f 376//210 375//210 382//210
f 376//210 382//210 383//210
f 377//211 376//211 383//211
f 377//211 383//211 384//211
f 378//212 377//212 384//212
f 378//212 384//212 385//212
f 379//213 378//213 385//213
f 379//213 385//213 386//213
f 380//214 379//214 386//214
f 380//214 386//214 387//214
f 381//215 380//215 387//215
f 381//215 387//215 388//215
f 386//216 385//216 392//216
f 386//216 392//216 393//216
f 387//217 386//217 393//217
f 387//217 393//217 394//217
f 388//218 387//218 394//218
f 388//218 394//218 395//218
f 383//219 382//219 389//219
f 383//219 389//219 390//219
f 384//220 383//220 390//220
f 384//220 390//220 391//220
f 385//221 384//221 391//221
f 385//221 391//221 392//221
f 391//222 390//222 397//222
f 391//222 397//222 398//222
f 392//223 391//223 398//223
f 392//223 398//223 399//223
f 393//224 392//224 399//224
f 393//224 399//224 400//224
f 394//225 393//225 400//225
f 394//225 400//225 401//225
f 395//226 394//226 401//226
f 395//226 401//226 402//226
f 390//227 389//227 396//227
f 390//227 396//227 397//227
f 402//228 401//228 408//228
f 402//228 408//228 409//228
f 397//229 396//229 403//229
f 397//229 403//229 404//229
f 398//230 397//230 404//230
f 398//230 404//230 405//230
f 399//231 398//231 405//231
f 399//231 405//231 406//231
f 400//232 399//232 406//232
f 400//232 406//232 407//232
f 401//233 400//233 407//233
f 401//233 407//233 408//233
f 297//6 290//6 403//6
f 304//6 297//6 403//6
f 304//6 403//6 396//6
f 311//6 304//6 396//6
f 311//6 396//6 389//6
f 311//6 389//6 318//6
f 389//6 382//6 318//6
f 382//6 325//6 318//6
f 382//6 375//6 325//6
f 375//6 332//6 325//6
f 375//6 368//6 332//6
f 368//6 340//6 332//6
f 368//6 361//6 340//6
f 361//6 347//6 340//6
f 361//6 354//6 347//6
f 290//2 297//2 298//2
f 290//2 298//2 291//2
f 298//2 292//2 291//2
f 298//2 299//2 292//2
f 299//2 293//2 292//2
f 299//2 300//2 293//2
f 300//2 294//2 293//2
f 300//2 301//2 294//2
f 301//2 295//2 294//2
f 301//2 302//2 295//2
f 302//2 296//2 295//2
f 302//2 303//2 296//2
f 303//2 339//2 296//2
f 339//234 303//234 310//234
f 339//235 310//235 317//235
f 339//236 317//236 324//236
f 339//237 324//237 331//237
f 339//238 331//238 338//238
f 339//239 338//239 346//239
f 339//240 346//240 353//240
f 339//241 353//241 360//241
f 339//242 360//242 367//242
f 339//243 367//243 374//243
f 339//244 374//244 381//244
f 339//245 381//245 388//245
f 339//246 388//246 395//246
f 339//247 395//247 402//247
f 339//248 402//248 409//248
f 407//249 406//249 293//249
f 407//249 293//249 294//249
f 408//250 407//250 294//250
f 408//250 294//250 295//250
f 409//251 408//251 295//251
f 409//251 295//251 296//251
f 339//252 409//252 296//252
f 290//253 291//253 404//253
f 290//253 404//253 403//253
f 405//254 404//254 291//254
f 405//254 291//254 292//254
f 406//255 405//255 292//255
f 406//255 292//255 293//255
f 413//256 417//256 411//256
f 413//256 411//256 357//256
f 350//257 410//257 417//257
f 350//257 417//257 413//257
f 410//258 349//258 412//258
f 410//258 412//258 417//258
f 416//259 418//259 414//259
f 416//259 414//259 364//259
f 357//260 411//260 418//260
f 357//260 418//260 416//260
f 411//261 356//261 415//261
f 411//261 415//261 418//261
o Frame_frame
v -21.000000 28.231377 -1.000000
v -21.000000 0.231378 -1.000000
v -21.000000 0.231378 1.000000
v -21.000000 28.231377 1.000000
v 21.000000 28.231377 -1.000000
v 21.000000 0.231378 -1.000000
v 20.250000 0.231378 -1.000000
v -20.250000 0.231378 -1.000000
v -20.250000 26.293413 -1.000000
v 20.250000 26.293413 -1.000000
v -20.250000 0.231378 1.000000
v 20.250000 0.231378 1.000000
v 21.000000 0.231378 1.000000
v 21.000000 28.231377 1.000000
v 20.250000 26.293413 1.000000
v -20.250000 26.293413 1.000000
g Frame_frame_GreySteel
usemtl GreySteel
s off
f 419//1 420//1 421//1
f 419//1 421//1 422//1
f 427//2 419//2 423//2
f 427//2 423//2 428//2
f 423//2 424//2 425//2
f 423//2 425//2 428//2
f 419//2 427//2 426//2
f 419//2 426//2 420//2
f 432//3 431//3 424//3
f 432//3 424//3 423//3
f 433//4 432//4 422//4
f 433//4 422//4 434//4
f 422//4 421//4 429//4
f 422//4 429//4 434//4
f 430//4 431//4 432//4
f 430//4 432//4 433//4
f 424//5 431//5 430//5
f 424//5 430//5 425//5
f 420//5 426//5 429//5
f 420//5 429//5 421//5
f 423//6 419//6 422//6
f 423//6 422//6 432//6
f 429//3 426//3 427//3
f 429//3 427//3 434//3
f 425//1 430//1 433//1
f 425//1 433//1 428//1
f 434//5 427//5 428//5
f 434//5 428//5 433//5
